<svg version="1.1" xmlns="http://www.w3.org/2000/svg" xmlns:xlink="http://www.w3.org/1999/xlink" x="0px" y="0px"
   width="20px" height="16px" viewBox="0 0 20 16" enable-background="new 0 0 20 16" xml:space="preserve">
<image overflow="visible" width="20" height="16" >
</image>
<path fill="#FFFFFF" d="M17,0H3C1.35,0,0,1.35,0,3v10c0,1.65,1.35,3,3,3h14c1.65,0,3-1.35,3-3V3C20,1.35,18.65,0,17,0z
   M6.027,11.998V4.002L15.014,8L6.027,11.998z"/>
</svg>
